\contentsline {chapter}{\numberline {1}工具介绍}{1}{chapter.1}% 
\contentsline {chapter}{\numberline {2}软件安装及启动}{3}{chapter.2}% 
\contentsline {section}{\numberline {2.1}软件安装}{3}{section.2.1}% 
\contentsline {section}{\numberline {2.2}软件启动}{7}{section.2.2}% 
\contentsline {chapter}{\numberline {3}硬件及环境搭建}{11}{chapter.3}% 
\contentsline {section}{\numberline {3.1}硬件需求}{11}{section.3.1}% 
\contentsline {section}{\numberline {3.2}线路连接及环境搭建}{12}{section.3.2}% 
\contentsline {subsection}{\numberline {3.2.1}硬件位置摆放}{13}{subsection.3.2.1}% 
\contentsline {subsection}{\numberline {3.2.2}近端喇叭位置摆放}{13}{subsection.3.2.2}% 
\contentsline {subsection}{\numberline {3.2.3}标麦位置摆放}{14}{subsection.3.2.3}% 
\contentsline {subsection}{\numberline {3.2.4}噪声喇叭位置摆放}{14}{subsection.3.2.4}% 
\contentsline {section}{\numberline {3.3}硬件驱动设置}{15}{section.3.3}% 
\contentsline {chapter}{\numberline {4}主菜单简介}{18}{chapter.4}% 
\contentsline {section}{\numberline {4.1}数据库}{18}{section.4.1}% 
\contentsline {section}{\numberline {4.2}许可证}{19}{section.4.2}% 
\contentsline {section}{\numberline {4.3}通用选项}{20}{section.4.3}% 
\contentsline {section}{\numberline {4.4}帮助}{20}{section.4.4}% 
\contentsline {chapter}{\numberline {5}系统设置}{22}{chapter.5}% 
\contentsline {section}{\numberline {5.1}录音设置}{22}{section.5.1}% 
\contentsline {section}{\numberline {5.2}硬件设置}{24}{section.5.2}% 
\contentsline {section}{\numberline {5.3}车机设置}{26}{section.5.3}% 
\contentsline {section}{\numberline {5.4}系统自检}{27}{section.5.4}% 
\contentsline {section}{\numberline {5.5}校准}{28}{section.5.5}% 
\contentsline {chapter}{\numberline {6}场景管理}{31}{chapter.6}% 
\contentsline {section}{\numberline {6.1}离散向量要求}{31}{section.6.1}% 
\contentsline {section}{\numberline {6.2}向量}{33}{section.6.2}% 
\contentsline {section}{\numberline {6.3}场景}{35}{section.6.3}% 
\contentsline {section}{\numberline {6.4}场景组}{37}{section.6.4}% 
\contentsline {chapter}{\numberline {7}录音操作}{38}{chapter.7}% 
